tidyverse 入门 - 5 magrittr 管道
…
# 【错误】写法一
arrange(relocate(diamonds, price), -price)

# 【错误】写法二
arrange(
  relocate(diamonds, price),
  -price
)

# 【正确】写法三，整洁、清晰、易读
diamonds %>%
  relocate(price) %>%
  arrange(-price)

# A tibble: 53,940 × 10
   price carat cut       color clarity depth table     x     y     z
   <int> <dbl> <ord>     <ord> <ord>   <dbl> <dbl> <dbl> <dbl> <dbl>
 1 18823  2.29 Premium   I     VS2      60.8    60  8.5   8.47  5.16
 2 18818  2    Very Good G     SI1      63.5    56  7.9   7.97  5.04
 3 18806  1.51 Ideal     G     IF       61.7    55  7.37  7.41  4.56
 4 18804  2.07 Ideal     G     SI2      62.5    55  8.2   8.13  5.11
 5 18803  2    Very Good H     SI1      62.8    57  7.95  8     5.01
 6 18797  2.29 Premium   I     SI1      61.8    59  8.52  8.45  5.24
 7 18795  2.04 Premium   H     SI1      58.1    60  8.37  8.28  4.84
 8 18795  2    Premium   I     VS1      60.8    59  8.13  8.02  4.91
 9 18791  1.71 Premium   F     VS2      62.3    59  7.57  7.53  4.7 
10 18791  2.15 Ideal     G     SI2      62.6    54  8.29  8.35  5.21
# ℹ 53,930 more rows
…
