tidyverse 入门 - 2 tibble 数据
…
提示

在载入 tidyverse 时，可能会出现类似上面的一些警告语，它们不会影响 tidyverse 的正常使用，请无须担心。

tidyverse 为整洁数据设计了一种数据格式，叫作 tibble。这个词是 tidy 和 table 的结合，顾名思义，特指整洁数据。它相当于Excel里的表格（整洁的才行）、Stata 里的数据、Python 里的 Pandas 数据框等。

在数据科学中，整洁数据是最主流的数据形式。尽管我们日常生活中，可以看到形形色色的数据呈现形式（比如12306列车时间表、网购的商品列表等），但是它们的底层数据都是很整洁的。

2.3 打印 tibble

在接下来的几章，我将以 diamonds 钻石数据为示例数据。

diamonds # 打印数据

# A tibble: 53,940 × 10
   carat cut       color clarity depth table price     x     y     z
   <dbl> <ord>     <ord> <ord>   <dbl> <dbl> <int> <dbl> <dbl> <dbl>
 1  0.23 Ideal     E     SI2      61.5    55   326  3.95  3.98  2.43
 2  0.21 Premium   E     SI1      59.8    61   326  3.89  3.84  2.31
 3  0.23 Good      E     VS1      56.9    65   327  4.05  4.07  2.31
 4  0.29 Premium   I     VS2      62.4    58   334  4.2   4.23  2.63
 5  0.31 Good      J     SI2      63.3    58   335  4.34  4.35  2.75
 6  0.24 Very Good J     VVS2     62.8    57   336  3.94  3.96  2.48
 7  0.24 Very Good I     VVS1     62.3    57   336  3.95  3.98  2.47
 8  0.26 Very Good H     SI1      61.9    55   337  4.07  4.11  2.53
 9  0.22 Fair      E     VS2      65.1    61   337  3.87  3.78  2.49
10  0.23 Very Good H     VS1      59.4    61   338  4     4.05  2.39
# ℹ 53,930 more rows
…
数值型（<dbl>）

整数型（<int>）

有序类别型（<ord>）

1  1.5  Very Good 从这一行开始，都是钻石的具体数据了

1为行号，其他均为这颗钻石的参数

如果你的 tibble 比较大，有很多行、很多列，tibble 在打印时会自动帮你隐藏多余的行和列，比方说

starwars

# A tibble: 87 × 14
   name     height  mass hair_color skin_color eye_color birth_year sex   gender
   <chr>     <int> <dbl> <chr>      <chr>      <chr>          <dbl> <chr> <chr> 
 1 Luke Sk…    172    77 blond      fair       blue            19   male  mascu…
 2 C-3PO       167    75 <NA>       gold       yellow         112   none  mascu…
 3 R2-D2        96    32 <NA>       white, bl… red             33   none  mascu…
 4 Darth V…    202   136 none       white      yellow          41.9 male  mascu…
 5 Leia Or…    150    49 brown      light      brown           19   fema… femin…
 6 Owen La…    178   120 brown, gr… light      blue            52   male  mascu…
 7 Beru Wh…    165    75 brown      light      blue            47   fema… femin…
 8 R5-D4        97    32 <NA>       white, red red             NA   none  mascu…
 9 Biggs D…    183    84 black      light      brown           24   male  mascu…
10 Obi-Wan…    182    77 auburn, w… fair       blue-gray       57   male  mascu…
# ℹ 77 more rows
# ℹ 5 more variables: homeworld <chr>, species <chr>, films <list>,
#   vehicles <list>, starships <list>
…
这里统计了A开头姓名的比例约为5.7%。

代码

# 仅供参考，不需要掌握
starwars %>%
  transmute(
    height,
    `height > 170` = height > 170
  )

# A tibble: 87 × 2
   height `height > 170`
    <int> <lgl>         
 1    172 TRUE          
 2    167 FALSE         
 3     96 FALSE         
 4    202 TRUE          
 5    150 FALSE         
 6    178 TRUE          
 7    165 FALSE         
 8     97 FALSE         
 9    183 TRUE          
10    182 TRUE          
# ℹ 77 more rows
…
